\relax 
\newlabel{sec:architektura_systemu}{{5}{5}}
\@writefile{toc}{\contentsline {section}{\numberline {6}Mo\IeC {\.z}liwe rozwi\IeC {\k a}zania}{5}}
\newlabel{sec:mozliwe_rozwiazania}{{6}{5}}
\@writefile{toc}{\contentsline {subsection}{\numberline {6.1}Autonomiczne urz\IeC {\k a}dzenia}{5}}
\newlabel{subsec:autonomiczne_urzadzenia}{{6.1}{5}}
\@writefile{lof}{\contentsline {figure}{\numberline {1}{\ignorespaces Przyk\IeC {\l }ad architektury z autonomicznymi urz\IeC {\k a}dzeniami}}{6}}
\newlabel{fig:autonomiczne_urzadzenia}{{1}{6}}
\@writefile{toc}{\contentsline {subsection}{\numberline {6.2}Rozproszone czujniki i urz\IeC {\k a}dzenia wyj\IeC {\'s}ciowe}{6}}
\newlabel{subsec:rozproszone_czujniki}{{6.2}{6}}
\@writefile{lof}{\contentsline {figure}{\numberline {2}{\ignorespaces Przyk\IeC {\l }ad architektury rozproszonej}}{6}}
\newlabel{fig:rozproszone_czujniki}{{2}{6}}
\@writefile{toc}{\contentsline {subsection}{\numberline {6.3}Systemy hybrydowe}{7}}
\newlabel{subsec:systemy_hybrydowe}{{6.3}{7}}
\@writefile{lof}{\contentsline {figure}{\numberline {3}{\ignorespaces Przyk\IeC {\l }ad architektury systemu hybrydowego}}{7}}
\newlabel{fig:system_hybrydowy}{{3}{7}}
\@writefile{toc}{\contentsline {section}{\numberline {7}Schemat systemu}{8}}
\newlabel{sec:opis_systemu}{{7}{8}}
\@writefile{lof}{\contentsline {figure}{\numberline {4}{\ignorespaces Schemat systemu}}{8}}
\newlabel{fig:system}{{4}{8}}
\@setckpt{architektura}{
\setcounter{page}{10}
\setcounter{equation}{0}
\setcounter{enumi}{0}
\setcounter{enumii}{0}
\setcounter{enumiii}{0}
\setcounter{enumiv}{0}
\setcounter{footnote}{0}
\setcounter{mpfootnote}{0}
\setcounter{part}{0}
\setcounter{section}{7}
\setcounter{subsection}{0}
\setcounter{subsubsection}{0}
\setcounter{paragraph}{0}
\setcounter{subparagraph}{0}
\setcounter{figure}{4}
\setcounter{table}{0}
\setcounter{lstnumber}{1}
\setcounter{step}{0}
\setcounter{stepstart}{0}
\setcounter{stepstop}{0}
\setcounter{yearstart}{0}
\setcounter{yearstop}{0}
\setcounter{deltayears}{0}
\setcounter{lstlisting}{0}
}
