\relax 
\citation{control4}
\citation{control4}
\@writefile{toc}{\contentsline {chapter}{\numberline {6}Interfejs u\IeC {\.z}ytkownika}{41}}
\@writefile{lof}{\addvspace {10\p@ }}
\@writefile{lot}{\addvspace {10\p@ }}
\newlabel{cha:interfejs}{{6}{41}}
\@writefile{toc}{\contentsline {section}{\numberline {6.1}Mo\IeC {\.z}liwe rozwi\IeC {\k a}zania}{41}}
\newlabel{sec:interfejs_rozwiazania}{{6.1}{41}}
\@writefile{lof}{\contentsline {figure}{\numberline {6.1}{\ignorespaces Przyk\IeC {\l }ad panelu dotykowego. \IeC {\'Z}r\IeC {\'o}d\IeC {\l }o: \cite  {control4}}}{41}}
\newlabel{fig:interfejs_panel}{{6.1}{41}}
\@writefile{lof}{\contentsline {figure}{\numberline {6.2}{\ignorespaces Przyk\IeC {\l }ad dwukierunkowego pilota z wy\IeC {\'s}wietlaczem. \IeC {\'Z}r\IeC {\'o}d\IeC {\l }o: \cite  {control4}}}{42}}
\newlabel{fig:interfejs_pilot}{{6.2}{42}}
\@writefile{toc}{\contentsline {section}{\numberline {6.2}Interfejs webowy}{42}}
\newlabel{sec:interfejs_webowy}{{6.2}{42}}
\citation{hcha}
\@writefile{lof}{\contentsline {figure}{\numberline {6.3}{\ignorespaces Webowy interfejs u\IeC {\.z}ytkownika}}{43}}
\newlabel{fig:interfejs_web}{{6.3}{43}}
\@writefile{toc}{\contentsline {section}{\numberline {6.3}Interfejs modu\IeC {\l }\IeC {\'o}w}{43}}
\newlabel{sec:interfejs_modulow}{{6.3}{43}}
\@writefile{lof}{\contentsline {figure}{\numberline {6.4}{\ignorespaces Przyk\IeC {\l }adowy interfejs modu\IeC {\l }u}}{43}}
\newlabel{fig:interfejs_module}{{6.4}{43}}
\@setckpt{interfejs}{
\setcounter{page}{45}
\setcounter{equation}{0}
\setcounter{enumi}{11}
\setcounter{enumii}{0}
\setcounter{enumiii}{0}
\setcounter{enumiv}{0}
\setcounter{footnote}{0}
\setcounter{mpfootnote}{0}
\setcounter{part}{0}
\setcounter{chapter}{6}
\setcounter{section}{3}
\setcounter{subsection}{0}
\setcounter{subsubsection}{0}
\setcounter{paragraph}{0}
\setcounter{subparagraph}{0}
\setcounter{figure}{4}
\setcounter{table}{0}
\setcounter{lofdepth}{1}
\setcounter{lotdepth}{1}
\setcounter{lstnumber}{13}
\setcounter{step}{1920}
\setcounter{stepstart}{0}
\setcounter{stepstop}{0}
\setcounter{yearstart}{1910}
\setcounter{yearstop}{2000}
\setcounter{deltayears}{91}
\setcounter{lstlisting}{0}
}
