\relax 
\citation{raspi}
\citation{raspiguide}
\citation{rpiarch}
\citation{raspipfmc}
\citation{rpiarch}
\citation{atmelSamL}
\citation{atmegadatasheet}
\@writefile{toc}{\contentsline {chapter}{\numberline {3}G\IeC {\l }\IeC {\'o}wny kontroler}{13}}
\@writefile{lof}{\addvspace {10\p@ }}
\@writefile{lot}{\addvspace {10\p@ }}
\newlabel{cha:glowny_kontroler}{{3}{13}}
\@writefile{toc}{\contentsline {section}{\numberline {3.1}Opis sprz\IeC {\k e}tu}{13}}
\newlabel{sec:urzadzenia}{{3.1}{13}}
\@writefile{toc}{\contentsline {subsection}{\numberline {3.1.1}Raspberry Pi model B+}{13}}
\newlabel{subsec:raspi}{{3.1.1}{13}}
\@writefile{toc}{\contentsline {subsection}{\numberline {3.1.2}ATmega8A}{14}}
\newlabel{subsec:atmega}{{3.1.2}{14}}
\@writefile{toc}{\contentsline {section}{\numberline {3.2}Baza danych}{14}}
\newlabel{sec:database}{{3.2}{14}}
\citation{dja}
\@writefile{lof}{\contentsline {figure}{\numberline {3.1}{\ignorespaces Struktura bazy danych. Obraz wygenerowany przy pomocy programu MySQL Workbench.}}{17}}
\newlabel{fig:db_schemat}{{3.1}{17}}
\@writefile{toc}{\contentsline {section}{\numberline {3.3}Webserver}{17}}
\newlabel{sec:webserver}{{3.3}{17}}
\citation{dja}
\citation{dja}
\citation{hcha}
\@writefile{toc}{\contentsline {section}{\numberline {3.4}G\IeC {\l }\IeC {\'o}wny modu\IeC {\l } radiowy}{18}}
\newlabel{sec:glowny_modul_radiowy}{{3.4}{18}}
\citation{rfm69datasheet}
\@writefile{lof}{\contentsline {figure}{\numberline {3.2}{\ignorespaces Uproszczony algorytm dzia\IeC {\l }ania g\IeC {\l }\IeC {\'o}wnego modu\IeC {\l }u radiowego}}{19}}
\newlabel{fig:kontroler_gmr_algo}{{3.2}{19}}
\@writefile{toc}{\contentsline {subsection}{\numberline {3.4.1}Schemat uk\IeC {\l }adu}{19}}
\newlabel{subsec:schemat_modulu_radiowego}{{3.4.1}{19}}
\citation{vusb}
\@writefile{lof}{\contentsline {figure}{\numberline {3.3}{\ignorespaces Schemat uk\IeC {\l }adu g\IeC {\l }\IeC {\'o}wnego modu\IeC {\l }u radiowego}}{20}}
\newlabel{fig:kontroler_gmr_schemat}{{3.3}{20}}
\@writefile{toc}{\contentsline {section}{\numberline {3.5}Kontroler modu\IeC {\l }u radiowego}{20}}
\newlabel{sec:kontroler_modulu_radiowego}{{3.5}{20}}
\@setckpt{kontroler}{
\setcounter{page}{22}
\setcounter{equation}{0}
\setcounter{enumi}{11}
\setcounter{enumii}{0}
\setcounter{enumiii}{0}
\setcounter{enumiv}{0}
\setcounter{footnote}{0}
\setcounter{mpfootnote}{0}
\setcounter{part}{0}
\setcounter{chapter}{3}
\setcounter{section}{5}
\setcounter{subsection}{0}
\setcounter{subsubsection}{0}
\setcounter{paragraph}{0}
\setcounter{subparagraph}{0}
\setcounter{figure}{3}
\setcounter{table}{0}
\setcounter{lofdepth}{1}
\setcounter{lotdepth}{1}
\setcounter{lstnumber}{1}
\setcounter{step}{1920}
\setcounter{stepstart}{0}
\setcounter{stepstop}{0}
\setcounter{yearstart}{1910}
\setcounter{yearstop}{2000}
\setcounter{deltayears}{91}
\setcounter{lstlisting}{0}
}
