\relax 
\@writefile{toc}{\contentsline {chapter}{\numberline {5}Modu\IeC {\l }y zewn\IeC {\k e}trzne}{33}}
\@writefile{lof}{\addvspace {10\p@ }}
\@writefile{lot}{\addvspace {10\p@ }}
\newlabel{cha:moduly}{{5}{33}}
\@writefile{toc}{\contentsline {section}{\numberline {5.1}Algorytm dzia\IeC {\l }ania}{33}}
\newlabel{sec:algorytm_dzialania_modulow_zewnetrznych}{{5.1}{33}}
\@writefile{toc}{\contentsline {section}{\numberline {5.2}Modu\IeC {\l } \IeC {\l }azienki}{33}}
\newlabel{sec:modul_lazienki}{{5.2}{33}}
\@writefile{toc}{\contentsline {subsection}{\numberline {5.2.1}Zakres dzia\IeC {\l }ania}{33}}
\newlabel{subsec:lazienka_dzialanie}{{5.2.1}{33}}
\@writefile{lof}{\contentsline {figure}{\numberline {5.1}{\ignorespaces Uproszczony schemat dzia\IeC {\l }ania modu\IeC {\l }u}}{34}}
\newlabel{fig:modul_algo}{{5.1}{34}}
\citation{dht22}
\@writefile{lof}{\contentsline {figure}{\numberline {5.2}{\ignorespaces Odpowied\IeC {\'z} skokowa warto\IeC {\'s}ci \IeC {\'s}redniej temperatury}}{35}}
\newlabel{fig:modul_lazienka_odp_skok}{{5.2}{35}}
\@writefile{toc}{\contentsline {subsection}{\numberline {5.2.2}Opis czujnik\IeC {\'o}w}{35}}
\newlabel{subsec:lazienka_czujniki}{{5.2.2}{35}}
\citation{fsr402}
\citation{fsr402}
\citation{opamp}
\@writefile{lof}{\contentsline {figure}{\numberline {5.3}{\ignorespaces Model modu\IeC {\l }u \IeC {\l }azienki}}{36}}
\newlabel{fig:modul_lazienka}{{5.3}{36}}
\@writefile{toc}{\contentsline {subsection}{\numberline {5.2.3}Schemat uk\IeC {\l }adu}{36}}
\newlabel{subsec:lazienka_schemat}{{5.2.3}{36}}
\citation{mq7}
\citation{ds18b20}
\@writefile{lof}{\contentsline {figure}{\numberline {5.4}{\ignorespaces Schemat uk\IeC {\l }adu pomiaru warto\IeC {\'s}ci napi\IeC {\k e}cia czujnik\IeC {\'o}w analogowych. Opracowano na podstawie \cite  {fsr402}}}{37}}
\newlabel{fig:modul_analog_schemat}{{5.4}{37}}
\@writefile{toc}{\contentsline {section}{\numberline {5.3}Modu\IeC {\l } piwnicy}{37}}
\newlabel{sec:modul_piwnicy}{{5.3}{37}}
\@writefile{toc}{\contentsline {subsection}{\numberline {5.3.1}Zakres dzia\IeC {\l }ania}{37}}
\newlabel{subsec:piwnica_dzialanie}{{5.3.1}{37}}
\@writefile{toc}{\contentsline {subsection}{\numberline {5.3.2}Opis czujnik\IeC {\'o}w}{37}}
\newlabel{subsec:piwnica_czujniki}{{5.3.2}{37}}
\@writefile{lof}{\contentsline {figure}{\numberline {5.5}{\ignorespaces Schemat modu\IeC {\l }u \IeC {\l }azienki}}{38}}
\newlabel{fig:modul_lazienka_schemat}{{5.5}{38}}
\@writefile{lof}{\contentsline {figure}{\numberline {5.6}{\ignorespaces Model modu\IeC {\l }u piwnicy}}{38}}
\newlabel{fig:modul_piwnica}{{5.6}{38}}
\@writefile{toc}{\contentsline {subsection}{\numberline {5.3.3}Schemat uk\IeC {\l }adu}{39}}
\newlabel{subsec:piwnica_schemat}{{5.3.3}{39}}
\@writefile{lof}{\contentsline {figure}{\numberline {5.7}{\ignorespaces Schemat modu\IeC {\l }u piwnicy}}{39}}
\newlabel{fig:modul_piwnica_schemat}{{5.7}{39}}
\@setckpt{moduly}{
\setcounter{page}{40}
\setcounter{equation}{0}
\setcounter{enumi}{11}
\setcounter{enumii}{0}
\setcounter{enumiii}{0}
\setcounter{enumiv}{0}
\setcounter{footnote}{0}
\setcounter{mpfootnote}{0}
\setcounter{part}{0}
\setcounter{chapter}{5}
\setcounter{section}{3}
\setcounter{subsection}{3}
\setcounter{subsubsection}{0}
\setcounter{paragraph}{0}
\setcounter{subparagraph}{0}
\setcounter{figure}{7}
\setcounter{table}{0}
\setcounter{lofdepth}{1}
\setcounter{lotdepth}{1}
\setcounter{lstnumber}{13}
\setcounter{step}{1920}
\setcounter{stepstart}{0}
\setcounter{stepstop}{0}
\setcounter{yearstart}{1910}
\setcounter{yearstop}{2000}
\setcounter{deltayears}{91}
\setcounter{lstlisting}{0}
}
