\relax 
\@writefile{toc}{\contentsline {chapter}{\numberline {8}Podsumowanie}{49}}
\@writefile{lof}{\addvspace {10\p@ }}
\@writefile{lot}{\addvspace {10\p@ }}
\newlabel{cha:podsumowanie}{{8}{49}}
\@setckpt{podsumowanie}{
\setcounter{page}{50}
\setcounter{equation}{0}
\setcounter{enumi}{11}
\setcounter{enumii}{0}
\setcounter{enumiii}{0}
\setcounter{enumiv}{0}
\setcounter{footnote}{0}
\setcounter{mpfootnote}{0}
\setcounter{part}{0}
\setcounter{chapter}{8}
\setcounter{section}{0}
\setcounter{subsection}{0}
\setcounter{subsubsection}{0}
\setcounter{paragraph}{0}
\setcounter{subparagraph}{0}
\setcounter{figure}{0}
\setcounter{table}{0}
\setcounter{lofdepth}{1}
\setcounter{lotdepth}{1}
\setcounter{lstnumber}{13}
\setcounter{step}{1920}
\setcounter{stepstart}{0}
\setcounter{stepstop}{0}
\setcounter{yearstart}{1910}
\setcounter{yearstop}{2000}
\setcounter{deltayears}{91}
\setcounter{lstlisting}{0}
}
