This is BibTeX, Version 0.99d (TeX Live 2014/Arch Linux)
Capacity: max_strings=35307, hash_size=35307, hash_prime=30011
The top-level auxiliary file: praca.aux
A level-1 auxiliary file: wprowadzenie.aux
A level-1 auxiliary file: historia.aux
A level-1 auxiliary file: architektura.aux
A level-1 auxiliary file: kontroler.aux
A level-1 auxiliary file: radio.aux
A level-1 auxiliary file: moduly.aux
A level-1 auxiliary file: interfejs.aux
A level-1 auxiliary file: rozwoj.aux
A level-1 auxiliary file: podsumowanie.aux
The style file: alpha.bst
Database file #1: bibliografia.bib
Warning--entry type for "sjppwn" isn't style-file defined
--line 2 of file bibliografia.bib
Warning--entry type for "oald" isn't style-file defined
--line 8 of file bibliografia.bib
Warning--entry type for "thosh" isn't style-file defined
--line 16 of file bibliografia.bib
Warning--entry type for "abhoha" isn't style-file defined
--line 22 of file bibliografia.bib
Warning--entry type for "x10c" isn't style-file defined
--line 58 of file bibliografia.bib
Warning--entry type for "zigb" isn't style-file defined
--line 63 of file bibliografia.bib
Warning--entry type for "inst" isn't style-file defined
--line 68 of file bibliografia.bib
Warning--entry type for "zwav" isn't style-file defined
--line 73 of file bibliografia.bib
Warning--entry type for "chome" isn't style-file defined
--line 78 of file bibliografia.bib
Warning--entry type for "raspi" isn't style-file defined
--line 86 of file bibliografia.bib
Warning--entry type for "raspipfmc" isn't style-file defined
--line 103 of file bibliografia.bib
Warning--entry type for "atmelSamL" isn't style-file defined
--line 110 of file bibliografia.bib
Warning--entry type for "hcha" isn't style-file defined
--line 135 of file bibliografia.bib
Warning--entry type for "control4" isn't style-file defined
--line 142 of file bibliografia.bib
Warning--entry type for "dja" isn't style-file defined
--line 149 of file bibliografia.bib
Warning--entry type for "vusb" isn't style-file defined
--line 156 of file bibliografia.bib
Warning--entry type for "dht22" isn't style-file defined
--line 163 of file bibliografia.bib
Warning--entry type for "fsr402" isn't style-file defined
--line 169 of file bibliografia.bib
Warning--entry type for "opamp" isn't style-file defined
--line 175 of file bibliografia.bib
Warning--entry type for "mq7" isn't style-file defined
--line 181 of file bibliografia.bib
Warning--entry type for "ds18b20" isn't style-file defined
--line 187 of file bibliografia.bib
Warning--to sort, need author or key in x10c
Warning--to sort, need author or key in zigb
Warning--to sort, need author or key in inst
Warning--to sort, need author or key in zwav
Warning--to sort, need author or key in chome
Warning--to sort, need author or key in raspi
Warning--to sort, need author or key in raspipfmc
Warning--to sort, need author or key in atmelSamL
Warning--to sort, need author or key in dja
Warning--to sort, need author or key in hcha
Warning--to sort, need author or key in vusb
Warning--to sort, need author or key in dht22
Warning--to sort, need author or key in fsr402
Warning--to sort, need author or key in opamp
Warning--to sort, need author or key in mq7
Warning--to sort, need author or key in ds18b20
Warning--to sort, need author or key in control4
Warning--empty journal in modulations
Warning--empty year in modulations
You've used 29 entries,
            2543 wiz_defined-function locations,
            667 strings with 6835 characters,
and the built_in function-call counts, 6604 in all, are:
= -- 626
> -- 99
< -- 10
+ -- 22
- -- 20
* -- 323
:= -- 860
add.period$ -- 66
call.type$ -- 29
change.case$ -- 121
chr.to.int$ -- 29
cite$ -- 65
duplicate$ -- 327
empty$ -- 745
format.name$ -- 38
if$ -- 1471
int.to.chr$ -- 1
int.to.str$ -- 0
missing$ -- 9
newline$ -- 127
num.names$ -- 30
pop$ -- 310
preamble$ -- 1
purify$ -- 157
quote$ -- 0
skip$ -- 263
stack$ -- 0
substring$ -- 226
swap$ -- 29
text.length$ -- 10
text.prefix$ -- 10
top$ -- 0
type$ -- 216
warning$ -- 19
while$ -- 20
width$ -- 33
write$ -- 292
(There were 40 warnings)
