\relax 
\catcode `"\active 
\select@language{polish}
\@writefile{toc}{\select@language{polish}}
\@writefile{lof}{\select@language{polish}}
\@writefile{lot}{\select@language{polish}}
\@input{wprowadzenie.aux}
\@input{historia.aux}
\@input{kontroler.aux}
\@input{radio.aux}
\@input{moduly.aux}
\@input{interfejs.aux}
\@input{rozwoj.aux}
\@input{podsumowanie.aux}
\bibstyle{alpha}
\bibdata{bibliografia}
\bibcite{modulations}{Ant}
\bibcite{atmegadatasheet}{Atm}
\bibcite{atmelSamL}{atm15}
\bibcite{abhoha}{Aut14}
\bibcite{hame}{Bre14}
\bibcite{chome}{cho09}
\bibcite{control4}{con12}
\bibcite{dht22}{dht}
\bibcite{dja}{dja15}
\bibcite{ds18b20}{ds1}
\bibcite{odun}{Dun15}
\bibcite{raspiguide}{EU12}
\bibcite{fsr402}{fsr}
\bibcite{hcha}{hch15}
\bibcite{thosh}{Hen}
\bibcite{rfm69datasheet}{Hop}
\bibcite{inst}{ins}
\bibcite{rpiarch}{JH}
\bibcite{mq7}{mq7}
\bibcite{opamp}{opa}
\bibcite{oald}{Pre15}
\bibcite{sjppwn}{PWN}
\bibcite{raspi}{ras}
\bibcite{raspipfmc}{ras14}
\bibcite{ha101}{Smi12}
\bibcite{vusb}{vus15}
\bibcite{x10c}{x10}
\bibcite{zigb}{zig}
\bibcite{zwav}{zwa}
