\relax 
\citation{rfm69datasheet}
\@writefile{toc}{\contentsline {chapter}{\numberline {4}Komunikacja radiowa}{23}}
\@writefile{lof}{\addvspace {10\p@ }}
\@writefile{lot}{\addvspace {10\p@ }}
\newlabel{cha:radio}{{4}{23}}
\@writefile{toc}{\contentsline {section}{\numberline {4.1}Modu\IeC {\l } radiowy}{23}}
\newlabel{sec:modul_radiowy}{{4.1}{23}}
\@writefile{toc}{\contentsline {subsection}{\numberline {4.1.1}Konfiguracja modu\IeC {\l }u radiowego}{23}}
\newlabel{subsec:konfiguracja_modulu_radiowego}{{4.1.1}{23}}
\citation{modulations}
\citation{rfm69datasheet}
\@writefile{lot}{\contentsline {table}{\numberline {4.1}{\ignorespaces Schemat rejestru 0x37 transcievera RFM69HW. Opracowano na podstawie \cite  {rfm69datasheet}}}{25}}
\newlabel{tab:register0x37}{{4.1}{25}}
\@writefile{toc}{\contentsline {section}{\numberline {4.2}Rodzaje pakiet\IeC {\'o}w}{26}}
\newlabel{sec:rodzaje_pakietow}{{4.2}{26}}
\@writefile{lof}{\contentsline {figure}{\numberline {4.1}{\ignorespaces Schemat kierunku przesy\IeC {\l }u pakiet\IeC {\'o}w komunikacji radiowej}}{26}}
\newlabel{fig:radio_pakiety}{{4.1}{26}}
\@writefile{toc}{\contentsline {section}{\numberline {4.3}Opis komunikacji}{27}}
\newlabel{sec:opis_komunikacji}{{4.3}{27}}
\@writefile{lof}{\contentsline {figure}{\numberline {4.2}{\ignorespaces Uproszczony schemat komunikacji dla g\IeC {\l }\IeC {\'o}wnego odbiornika}}{27}}
\newlabel{fig:radio_komunikacja_main_receiver}{{4.2}{27}}
\@writefile{lof}{\contentsline {figure}{\numberline {4.3}{\ignorespaces Uproszczony schemat komunikacji dla modu\IeC {\l }\IeC {\'o}w}}{28}}
\newlabel{fig:radio_komunikacja_moduly}{{4.3}{28}}
\@writefile{toc}{\contentsline {subsection}{\numberline {4.3.1}Schemat pakietu danych uk\IeC {\l }adu RFM69HW}{28}}
\newlabel{subsec:schemat_pakietu_danych_rfm69hw}{{4.3.1}{28}}
\citation{rfm69datasheet}
\@writefile{lof}{\contentsline {figure}{\numberline {4.4}{\ignorespaces Schemat pakietu modu\IeC {\l }u RFM69HW. Opracowano na podstawie \cite  {rfm69datasheet}}}{29}}
\newlabel{fig:radio_packet_rfm}{{4.4}{29}}
\@writefile{toc}{\contentsline {subsection}{\numberline {4.3.2}Struktura danych w pakietach}{29}}
\newlabel{subsec:struktura_danych_w_pakietach}{{4.3.2}{29}}
\@writefile{toc}{\contentsline {subsubsection}{\numberline {4.3.2.1}Pakiet rejestracyjny}{29}}
\newlabel{subsubsec:pakiet_rejestracyjny}{{4.3.2.1}{29}}
\@writefile{toc}{\contentsline {subsubsection}{\numberline {4.3.2.2}Pakiet konfiguracyjny}{31}}
\newlabel{subsubsec:pakiet_konfiguracyjny}{{4.3.2.2}{31}}
\@writefile{toc}{\contentsline {subsubsection}{\numberline {4.3.2.3}Pakiet danych}{31}}
\newlabel{subsubsec:pakiet_danych}{{4.3.2.3}{31}}
\@writefile{toc}{\contentsline {section}{\numberline {4.4}Wykrywanie kolizji pakiet\IeC {\'o}w}{32}}
\newlabel{sec:wykrywanie_kolizji_pakietow}{{4.4}{32}}
\@setckpt{radio}{
\setcounter{page}{33}
\setcounter{equation}{0}
\setcounter{enumi}{11}
\setcounter{enumii}{0}
\setcounter{enumiii}{0}
\setcounter{enumiv}{0}
\setcounter{footnote}{0}
\setcounter{mpfootnote}{0}
\setcounter{part}{0}
\setcounter{chapter}{4}
\setcounter{section}{4}
\setcounter{subsection}{0}
\setcounter{subsubsection}{3}
\setcounter{paragraph}{0}
\setcounter{subparagraph}{0}
\setcounter{figure}{4}
\setcounter{table}{1}
\setcounter{lofdepth}{1}
\setcounter{lotdepth}{1}
\setcounter{lstnumber}{13}
\setcounter{step}{1920}
\setcounter{stepstart}{0}
\setcounter{stepstop}{0}
\setcounter{yearstart}{1910}
\setcounter{yearstop}{2000}
\setcounter{deltayears}{91}
\setcounter{lstlisting}{0}
}
