\relax 
\citation{sjppwn}
\citation{oald}
\citation{hame}
\citation{x10c}
\@writefile{toc}{\contentsline {chapter}{\numberline {2}Historia automatyki domowej}{9}}
\@writefile{lof}{\addvspace {10\p@ }}
\@writefile{lot}{\addvspace {10\p@ }}
\newlabel{cha:Historia}{{2}{9}}
\@writefile{toc}{\contentsline {section}{\numberline {2.1}Definicja}{9}}
\newlabel{sec:definicja}{{2.1}{9}}
\@writefile{toc}{\contentsline {section}{\numberline {2.2}Historia}{9}}
\newlabel{sec:historia}{{2.2}{9}}
\citation{thosh}
\citation{abhoha}
\citation{zigb}
\citation{x10c}
\citation{inst}
\citation{zwav}
\@writefile{lof}{\contentsline {figure}{\numberline {2.1}{\ignorespaces Historia automatyki budynk\IeC {\'o}w. Opracowano na postawie \cite  {thosh,abhoha}.}}{10}}
\newlabel{fig:history}{{2.1}{10}}
\@writefile{toc}{\contentsline {section}{\numberline {2.3}Obecne rozwi\IeC {\k a}zania}{10}}
\newlabel{sec:obecne rozwi\IeC {\k a}zania}{{2.3}{10}}
\citation{odun}
\citation{odun}
\@writefile{toc}{\contentsline {subsection}{\numberline {2.3.1}Protoko\IeC {\l }y komunikacji}{11}}
\newlabel{subsec:protokoly_komunikacji}{{2.3.1}{11}}
\@writefile{toc}{\contentsline {subsection}{\numberline {2.3.2}Rozwi\IeC {\k a}zania programowe}{12}}
\newlabel{subsec:rozwiazania_programowe}{{2.3.2}{12}}
\@setckpt{rozdzial2}{
\setcounter{page}{13}
\setcounter{equation}{0}
\setcounter{enumi}{0}
\setcounter{enumii}{0}
\setcounter{enumiii}{0}
\setcounter{enumiv}{0}
\setcounter{footnote}{0}
\setcounter{mpfootnote}{0}
\setcounter{part}{0}
\setcounter{chapter}{2}
\setcounter{section}{3}
\setcounter{subsection}{2}
\setcounter{subsubsection}{0}
\setcounter{paragraph}{0}
\setcounter{subparagraph}{0}
\setcounter{figure}{1}
\setcounter{table}{0}
\setcounter{lofdepth}{1}
\setcounter{lotdepth}{1}
\setcounter{lstnumber}{1}
\setcounter{step}{1920}
\setcounter{stepstart}{0}
\setcounter{stepstop}{0}
\setcounter{yearstart}{1910}
\setcounter{yearstop}{2000}
\setcounter{deltayears}{91}
\setcounter{lstlisting}{0}
}
