\relax 
\@writefile{toc}{\contentsline {chapter}{\numberline {3}Architektura systemu}{13}}
\@writefile{lof}{\addvspace {10\p@ }}
\@writefile{lot}{\addvspace {10\p@ }}
\newlabel{sec:architektura_systemu}{{3}{13}}
\@writefile{toc}{\contentsline {section}{\numberline {3.1}Mo\IeC {\.z}liwe rozwi\IeC {\k a}zania}{13}}
\newlabel{sec:mozliwe_rozwiazania}{{3.1}{13}}
\@writefile{toc}{\contentsline {subsection}{\numberline {3.1.1}Autonomiczne urz\IeC {\k a}dzenia}{13}}
\newlabel{subsec:autonomiczne_urzadzenia}{{3.1.1}{13}}
\@writefile{lof}{\contentsline {figure}{\numberline {3.1}{\ignorespaces Przyk\IeC {\l }ad architektury z autonomicznymi urz\IeC {\k a}dzeniami}}{14}}
\newlabel{fig:autonomiczne_urzadzenia}{{3.1}{14}}
\@writefile{toc}{\contentsline {subsection}{\numberline {3.1.2}Rozproszone czujniki i urz\IeC {\k a}dzenia wyj\IeC {\'s}ciowe}{14}}
\newlabel{subsec:rozproszone_czujniki}{{3.1.2}{14}}
\@writefile{lof}{\contentsline {figure}{\numberline {3.2}{\ignorespaces Przyk\IeC {\l }ad architektury rozproszonej}}{14}}
\newlabel{fig:rozproszone_czujniki}{{3.2}{14}}
\@writefile{toc}{\contentsline {subsection}{\numberline {3.1.3}Systemu hybrydowe}{15}}
\newlabel{subsec:systemy_hybrydowe}{{3.1.3}{15}}
\@writefile{lof}{\contentsline {figure}{\numberline {3.3}{\ignorespaces Przyk\IeC {\l }ad architektury systemu hybrydowego}}{15}}
\newlabel{fig:system_hybrydowy}{{3.3}{15}}
\@writefile{toc}{\contentsline {section}{\numberline {3.2}Schemat systemu}{16}}
\newlabel{sec:opis_systemu}{{3.2}{16}}
\@writefile{lof}{\contentsline {figure}{\numberline {3.4}{\ignorespaces Schemat systemu}}{16}}
\newlabel{fig:system}{{3.4}{16}}
\@setckpt{rozdzial3}{
\setcounter{page}{18}
\setcounter{equation}{0}
\setcounter{enumi}{0}
\setcounter{enumii}{0}
\setcounter{enumiii}{0}
\setcounter{enumiv}{0}
\setcounter{footnote}{0}
\setcounter{mpfootnote}{0}
\setcounter{part}{0}
\setcounter{chapter}{3}
\setcounter{section}{2}
\setcounter{subsection}{0}
\setcounter{subsubsection}{0}
\setcounter{paragraph}{0}
\setcounter{subparagraph}{0}
\setcounter{figure}{4}
\setcounter{table}{0}
\setcounter{lofdepth}{1}
\setcounter{lotdepth}{1}
\setcounter{lstnumber}{1}
\setcounter{step}{1920}
\setcounter{stepstart}{0}
\setcounter{stepstop}{0}
\setcounter{yearstart}{1910}
\setcounter{yearstop}{2000}
\setcounter{deltayears}{91}
\setcounter{lstlisting}{0}
}
