\relax 
\@writefile{toc}{\contentsline {chapter}{\numberline {7}Dalszy rozw\IeC {\'o}j}{45}}
\@writefile{lof}{\addvspace {10\p@ }}
\@writefile{lot}{\addvspace {10\p@ }}
\newlabel{cha:rozwoj}{{7}{45}}
\@writefile{toc}{\contentsline {section}{\numberline {7.1}Skrypty}{45}}
\newlabel{sec:skrypty}{{7.1}{45}}
\@writefile{lof}{\contentsline {figure}{\numberline {7.1}{\ignorespaces Konieczne zmiany g\IeC {\l }\IeC {\'o}wnego kontrolera dla adaptacji obs\IeC {\l }ugi skrypt\IeC {\'o}w i modu\IeC {\l }\IeC {\'o}w wirtualnych}}{45}}
\newlabel{fig:rozwoj_skrypty}{{7.1}{45}}
\@writefile{toc}{\contentsline {section}{\numberline {7.2}Wirtualne modu\IeC {\l }y zewn\IeC {\k e}trzne}{45}}
\newlabel{sec:wirtualne_moduly}{{7.2}{45}}
\@writefile{lof}{\contentsline {figure}{\numberline {7.2}{\ignorespaces Przyk\IeC {\l }adowy wirtualny modu\IeC {\l }}}{46}}
\newlabel{fig:rozwoj_virtual_module}{{7.2}{46}}
\@writefile{toc}{\contentsline {section}{\numberline {7.3}Kontroler skrypt\IeC {\'o}w i wirtualnych modu\IeC {\l }\IeC {\'o}w}{46}}
\newlabel{sec:rozwoj_kontroler_siwm}{{7.3}{46}}
\@writefile{toc}{\contentsline {section}{\numberline {7.4}Rozw\IeC {\'o}j protoko\IeC {\l }u komunikacji}{46}}
\newlabel{sec:rozwoj_protokolu_komunikacji}{{7.4}{46}}
\@writefile{toc}{\contentsline {section}{\numberline {7.5}Serwer www}{47}}
\newlabel{sec:rozwoj_serwer}{{7.5}{47}}
\@setckpt{rozwoj}{
\setcounter{page}{48}
\setcounter{equation}{0}
\setcounter{enumi}{11}
\setcounter{enumii}{0}
\setcounter{enumiii}{0}
\setcounter{enumiv}{0}
\setcounter{footnote}{0}
\setcounter{mpfootnote}{0}
\setcounter{part}{0}
\setcounter{chapter}{7}
\setcounter{section}{5}
\setcounter{subsection}{0}
\setcounter{subsubsection}{0}
\setcounter{paragraph}{0}
\setcounter{subparagraph}{0}
\setcounter{figure}{2}
\setcounter{table}{0}
\setcounter{lofdepth}{1}
\setcounter{lotdepth}{1}
\setcounter{lstnumber}{13}
\setcounter{step}{1920}
\setcounter{stepstart}{0}
\setcounter{stepstop}{0}
\setcounter{yearstart}{1910}
\setcounter{yearstop}{2000}
\setcounter{deltayears}{91}
\setcounter{lstlisting}{0}
}
