\relax 
\citation{ha101}
\@writefile{toc}{\contentsline {chapter}{\numberline {1}Wprowadzenie}{7}}
\@writefile{lof}{\addvspace {10\p@ }}
\@writefile{lot}{\addvspace {10\p@ }}
\newlabel{cha:wprowadzenie}{{1}{7}}
\@writefile{toc}{\contentsline {section}{\numberline {1.1}Opis problemu}{7}}
\newlabel{sec:opisProblemu}{{1.1}{7}}
\@writefile{toc}{\contentsline {section}{\numberline {1.2}Cel pracy}{7}}
\newlabel{sec:celePracy}{{1.2}{7}}
\@writefile{toc}{\contentsline {section}{\numberline {1.3}Zakres pracy}{7}}
\newlabel{sec:zakresPracy}{{1.3}{7}}
\@writefile{toc}{\contentsline {section}{\numberline {1.4}Motywacje}{7}}
\newlabel{sec:motywacje}{{1.4}{7}}
\@writefile{toc}{\contentsline {section}{\numberline {1.5}Struktura pracy}{8}}
\newlabel{sec:strukturaPracy}{{1.5}{8}}
\@setckpt{wprowadzenie}{
\setcounter{page}{9}
\setcounter{equation}{0}
\setcounter{enumi}{0}
\setcounter{enumii}{0}
\setcounter{enumiii}{0}
\setcounter{enumiv}{0}
\setcounter{footnote}{0}
\setcounter{mpfootnote}{0}
\setcounter{part}{0}
\setcounter{chapter}{1}
\setcounter{section}{5}
\setcounter{subsection}{0}
\setcounter{subsubsection}{0}
\setcounter{paragraph}{0}
\setcounter{subparagraph}{0}
\setcounter{figure}{0}
\setcounter{table}{0}
\setcounter{lofdepth}{1}
\setcounter{lotdepth}{1}
\setcounter{lstnumber}{1}
\setcounter{step}{0}
\setcounter{stepstart}{0}
\setcounter{stepstop}{0}
\setcounter{yearstart}{0}
\setcounter{yearstop}{0}
\setcounter{deltayears}{0}
\setcounter{lstlisting}{0}
}
